<svg width="280" height="281" viewBox="0 0 280 281" fill="none" xmlns="http://www.w3.org/2000/svg">
<path d="M148.41 0L144.665 3.37354L8.21841 141.821L0 150.068L8.21841 158.7L121.864 272.752L130.466 281L138.696 272.752L276.627 135.806L280 132.06V0H148.41ZM158.506 24.0109H256.075V121.928L130.466 247.241L33.6392 150.068L158.506 24.0109ZM220.186 48.0219C213.607 48.0219 208.224 53.4243 208.224 60.0273C208.224 66.6303 213.607 72.0328 220.186 72.0328C226.766 72.0328 232.149 66.6303 232.149 60.0273C232.149 53.4243 226.766 48.0219 220.186 48.0219ZM168.22 84.0383C158.63 84.4183 149.542 88.444 142.799 95.2994C140.646 97.4604 139.163 100.078 137.572 102.419L134.952 99.7895L118.132 117.053L125.609 124.557C125.19 125.397 124.951 126.43 124.484 127.186C120.046 134.737 116.398 138.903 107.282 139.936L97.951 130.559L81.1194 147.439L140.191 206.722L148.41 198.09L161.868 184.584L145.048 167.704L140.191 172.579L125.597 158.316C132.604 154.354 138.619 148.84 143.182 142.193L155.145 154.198L171.964 137.307L155.133 120.055C156.915 116.573 158.411 113.776 159.619 112.551C167.06 105.096 180.003 107.029 184.298 117.053L205.986 107.677C203.497 101.808 199.6 96.6482 194.643 92.656C189.687 88.6637 183.823 85.9632 177.575 84.7946C174.495 84.1913 171.357 83.9376 168.22 84.0383Z" fill="black"/>
</svg>
