<svg width="74" height="68" viewBox="0 0 74 68" fill="none" xmlns="http://www.w3.org/2000/svg">
<path d="M23.0652 0.00503925C22.5985 -0.00627223 22.1545 0.00503896 21.722 0.0276619L21.7106 0.0389739C20.7202 0.115326 19.7185 0.369835 18.7879 0.833605V0.844916C16.83 1.82901 15.6405 3.6841 15.0059 5.61553C14.3741 7.5611 14.1948 9.70463 14.229 12.0461C14.2859 14.9503 14.9632 18.3409 15.9649 21.8758C14.2517 22.3084 12.6296 22.7948 11.1271 23.335C8.09344 24.4378 5.51231 25.7528 3.53448 27.4212C1.54527 29.0897 0 31.2982 0 33.9395C0 36.9766 1.65625 39.4962 3.64547 41.2297C5.64606 42.9745 8.03653 44.1566 10.3502 45.0643L12.4162 39.7818C10.4925 39.0438 8.62561 38.0484 7.40476 36.9879C6.19245 35.9275 5.69159 35.0225 5.69159 33.9395C5.69159 33.4983 5.97048 32.7687 7.19133 31.7422C8.41502 30.7242 10.4725 29.5987 13.0821 28.6485C14.5872 28.1158 16.1205 27.6655 17.6752 27.2996C18.3981 29.2678 19.1977 31.2219 20.0202 33.1448C15.5864 42.5334 14.1294 51.526 14.229 57.2807C14.2944 61.1464 15.7173 64.5936 18.5973 66.4486C20.5871 67.7102 22.9636 68.2274 25.302 67.9078C27.7579 67.577 30.2594 66.426 32.9486 64.5144L29.6589 59.9191C27.4562 61.4772 25.7345 62.1418 24.5222 62.3058C23.3099 62.4613 22.5558 62.2634 21.6992 61.6978C20.7885 61.1124 19.9633 59.8003 19.9206 57.1817C19.8551 53.3358 20.7316 47.007 23.2672 40.1155C23.7339 41.0204 24.1893 41.9141 24.6446 42.7539H24.6332C27.6697 48.3446 32.2258 55.0382 36.9954 60.1425C39.3744 62.6932 41.7877 64.8481 44.2891 66.2846C46.7109 67.6646 49.5908 68.4055 52.246 67.2122C54.5938 66.4034 56.048 64.3277 56.7594 62.0852C57.4936 59.7438 57.6843 57.0036 57.4822 53.9014C57.0611 47.7027 54.9495 40.0816 50.88 32.6019L45.8771 35.277C49.5567 42.0696 51.4463 49.0629 51.802 54.2747C51.9813 56.8933 51.7451 59.0594 51.3239 60.3829C50.9141 61.712 50.4901 61.9212 50.436 61.941L50.1685 62.0089L49.9352 62.1305C49.6136 62.2945 48.7997 62.3397 47.1321 61.3783C45.4531 60.4168 43.3187 58.5956 41.1758 56.2966C36.873 51.69 32.4392 45.217 29.6589 40.0816C28.4561 37.8319 27.3435 35.5358 26.3236 33.1986C27.1005 31.7196 27.9457 30.2491 28.9019 28.7927C29.6134 27.6899 30.3476 26.6266 31.0818 25.5548C31.9156 25.5322 32.738 25.4559 33.5832 25.4559C35.2167 25.4559 36.8844 25.5011 38.5947 25.5888C47.6671 26.0525 55.5841 27.8426 60.9513 30.1841C63.6292 31.3435 65.6525 32.6584 66.8421 33.8518C68.043 35.0452 68.3446 35.9161 68.2991 36.6231C68.2991 36.8126 67.9662 37.6185 66.6087 38.5234C65.2427 39.4284 63.0515 40.3022 60.4049 40.7772L61.3952 46.3453C64.6764 45.7599 67.5307 44.7108 69.7675 43.2177C72.0129 41.7274 73.8456 39.6602 73.9907 36.9116C74.1245 34.2251 72.8012 31.7733 70.8774 29.8645C68.9536 27.9416 66.3526 26.3608 63.2307 25.0006C56.97 22.2745 48.5237 20.442 38.8963 19.933C37.63 19.8765 36.3835 19.8567 35.1399 19.8454C37.1296 17.1631 39.2672 14.5924 41.5429 12.1451C45.5555 7.9259 49.2778 5.72582 50.991 5.66078C51.7366 5.63815 52.1578 5.77389 52.5135 5.99164C53.2477 6.47803 54.2153 7.62614 54.1584 9.59434C54.1157 11.1073 53.4697 14.0228 52.6586 15.8241L57.8493 18.1204C59.0503 15.482 59.7731 12.3657 59.8499 9.74987C59.9495 5.87004 58.0286 2.81028 55.6154 1.25213C54.1583 0.324588 52.448 -0.0486903 50.7775 0.00503925C45.9539 0.191679 41.8076 3.62754 37.408 8.26807C34.2947 11.5371 31.1273 15.5922 28.0026 20.0207C25.8341 20.1875 23.7112 20.4081 21.6878 20.7277C20.6548 17.2607 19.9661 14.1331 19.9206 11.9584C19.8864 10.0016 20.0885 8.38967 20.4214 7.36315C20.7629 6.3225 21.1101 6.01426 21.3776 5.88135C21.6157 5.75933 21.8782 5.6917 22.146 5.6834C23.677 5.5618 26.8131 6.21221 29.8353 9.02028L33.717 4.88877C30.1484 1.57451 26.2781 0.146433 23.0652 0.00503925ZM23.8449 26.1741L23.6457 26.5276C23.5983 26.4237 23.5574 26.317 23.5234 26.2081L23.8449 26.1741ZM36.9954 28.2837C35.4858 28.2837 34.0382 28.8796 32.9708 29.9403C31.9034 31.0009 31.3038 32.4395 31.3038 33.9395C31.3038 35.4395 31.9034 36.878 32.9708 37.9387C34.0382 38.9993 35.4858 39.5952 36.9954 39.5952C38.5049 39.5952 39.9525 38.9993 41.0199 37.9387C42.0873 36.878 42.6869 35.4395 42.6869 33.9395C42.6869 32.4395 42.0873 31.0009 41.0199 29.9403C39.9525 28.8796 38.5049 28.2837 36.9954 28.2837Z" fill="black"/>
</svg>
